<?xml version="1.0" encoding="utf-8"?>
<!-- Generator: Adobe Illustrator 21.1.0, SVG Export Plug-In . SVG Version: 6.00 Build 0)  -->
<svg version="1.1" id="Layer_1" xmlns="http://www.w3.org/2000/svg" xmlns:xlink="http://www.w3.org/1999/xlink" x="0px" y="0px"
	 viewBox="0 0 73 73" style="enable-background:new 0 0 73 73;" xml:space="preserve">
<style type="text/css">
	.st0{fill:#CD5E2C;}
	.st1{fill:#FFFFFF;}
</style>
<circle class="st0" cx="36.5" cy="36.5" r="36.5"/>
<g>
	<path class="st1" d="M57.1,23.3c0-1.2-0.8-1.2-0.8-1.2c-1.2-0.1-1.1,0.7-1.1,0.7c0.3,3.8-3.9,1.2-3.9,1.2c-5-3.2-8.9-4.2-11.5-4.5
		c0-0.1,0-0.3,0-0.5c0-1.2-0.8-2.2-1.8-2.6L36.5,14l-1.2,2.6C34.4,17,33.8,18,33.8,19c0,0.2,0,0.3,0,0.5c-2.5,0.3-6.5,1.3-11.5,4.5
		c0,0-4.2,2.5-3.9-1.2c0,0,0.1-0.8-1.1-0.7c0,0-0.8,0-0.8,1.2c0,0-0.5,3.6,2.8,3.8c0,0,2-0.2,5-1.7c0,0,3.5-1.5,10.6-1.6v26
		c-6.5,0.5-11.8,3.2-13.1,6.2h29.9c-1.3-3-6.6-5.7-13.1-6.2v-26c7.1,0.1,10.6,1.6,10.6,1.6c2.9,1.5,5,1.7,5,1.7
		C57.6,26.9,57.1,23.3,57.1,23.3z"/>
	<path class="st1" d="M26.7,40.8C26.7,40.8,26.7,40.7,26.7,40.8L26.7,40.8c0-0.2,0-0.4-0.1-0.5l-6.7-11c-0.2-0.3-0.5-0.4-0.8-0.4
		c-0.3,0-0.6,0.2-0.8,0.5l-6.2,11c-0.1,0.1-0.1,0.2-0.1,0.3l0,0c0.8,3.3,3.8,5.8,7.3,5.8c3.4,0,6.3-2.3,7.2-5.4
		C26.7,41,26.7,40.9,26.7,40.8z M14,40.7l5.2-9.1l5.7,9.1H14z"/>
	<path class="st1" d="M61.6,40.8C61.6,40.8,61.6,40.7,61.6,40.8L61.6,40.8c0-0.2,0-0.4-0.1-0.5l-6.7-11c-0.2-0.3-0.5-0.4-0.8-0.4
		c-0.3,0-0.6,0.2-0.8,0.5l-6.2,11C47,40.5,47,40.6,47,40.7l0,0c0.8,3.3,3.8,5.8,7.3,5.8c3.4,0,6.3-2.3,7.2-5.4
		C61.6,41,61.6,40.9,61.6,40.8z M48.9,40.7l5.2-9.1l5.7,9.1H48.9z"/>
</g>
</svg>
