<?xml version="1.0" encoding="utf-8"?>
<!-- Generator: Adobe Illustrator 19.1.0, SVG Export Plug-In . SVG Version: 6.00 Build 0)  -->
<svg version="1.1" id="Layer_1" xmlns="http://www.w3.org/2000/svg" xmlns:xlink="http://www.w3.org/1999/xlink" x="0px" y="0px"
	 height="394" width="1030" viewBox="209 200 1030 394" style="enable-background:new 209 200 1030 394;" xml:space="preserve">
<style type="text/css">
	.st0{fill:#FFFFFF; opacity:0.5;}
</style>
<path class="st0" d="M1239,319.6h-138.6v-44.5h-24.8v-74.5H788.7v41.5H590.8v18.9h-70.1v-60.9h-217V285h64.2v77.8H209v114.1h224.9
	v57h99.9v60h500.4v-40.5h66.2v-84.7H1239V319.6z M1098.9,276.7v43h-23.3v-43H1098.9z M920.6,500.8h112.1v51H920.6V500.8z
	 M920.6,499.3v-203h112.1v23.2h-80.7v149h80.7v30.7L920.6,499.3L920.6,499.3z M790.2,436.4h55.2v-140h73.8v203H790.2V436.4z
	 M435.4,399.5v-35.3H493v35.3H435.4z M492.9,401v74.4h-57.7V401H492.9z M369.4,364.2h64.5v35.3h-64.5V364.2z M435.4,362.7v-19.8
	h98.4v56.5h-39.3v-36.8L435.4,362.7L435.4,362.7z M535.3,343h55.5v56.5h-55.5V343z M617.1,294.9h-24.8v-32.4h24.8V294.9z
	 M617.1,296.4v45.1h-24.8v-45.1H617.1z M617.1,343v56.5h-24.8V343H617.1z M590.8,341.5h-55.5v-45.2h55.5V341.5z M590.8,401v35.4
	h153.3v95.9H535.3V401H590.8z M592.3,434.9V401h26.3v-58h125.5v91.8H592.3L592.3,434.9z M618.6,341.5v-45.2h170.1v138.5h-43.1v-93.3
	H618.6z M790.2,296.4h53.7v138.5h-53.7V296.4z M843.7,294.9h-53.7v-51.2h53.7V294.9z M920.6,294.9v-18.2h153.5v43h-39.9v-24.8H920.6
	z M1032.6,321.1v146h-79.1v-146H1032.6z M1034.1,468.7h39.9v30.7h-39.9V468.7z M1034.1,467.2v-146h39.9v146H1034.1z M1075.6,321.1
	h23.3v146h-23.3V321.1z M790.2,202.2h283.9v73h-155V295h-73.8v-52.8h-55.2V202.2z M592.3,243.7h196.4V295H618.6v-34h-26.3V243.7z
	 M305.2,283.5v-81.8h214V261H367.9v22.5H305.2z M519.2,262.5v21H369.4v-21C369.4,262.5,519.2,262.5,519.2,262.5z M369.4,285h151.3
	v-22.5h70.1v32.4h-57v46.6h-99.9v21.3h-64.5V285z M210.5,475.4V364.2h157.4V401h66v74.4L210.5,475.4L210.5,475.4z M435.4,532.3
	v-55.5h59.2V401h39.3v131.3H435.4z M1032.6,592.3H535.3v-58.5h210.3v-97.4h43.1v64.5h130.4v52.5h113.6L1032.6,592.3L1032.6,592.3z
	 M1098.9,551.8h-64.7v-51h41.4v-32.2h23.3V551.8z M1237.5,467.2h-137.1v-146h137.1V467.2z"/>
</svg>
